(kicad_pcb (version 20171130) (host pcbnew "(5.1.4-0-10_14)")

  (general
    (thickness 1.6)
    (drawings 0)
    (tracks 40)
    (zones 0)
    (modules 8)
    (nets 11)
  )

  (page A4)
  (layers
    (0 F.Cu signal)
    (31 B.Cu signal)
    (32 B.Adhes user)
    (33 F.Adhes user)
    (34 B.Paste user)
    (35 F.Paste user)
    (36 B.SilkS user)
    (37 F.SilkS user)
    (38 B.Mask user)
    (39 F.Mask user)
    (40 Dwgs.User user)
    (41 Cmts.User user)
    (42 Eco1.User user)
    (43 Eco2.User user)
    (44 Edge.Cuts user)
    (45 Margin user)
    (46 B.CrtYd user)
    (47 F.CrtYd user)
    (48 B.Fab user)
    (49 F.Fab user)
  )

  (setup
    (last_trace_width 1.27)
    (user_trace_width 1.27)
    (trace_clearance 0.2)
    (zone_clearance 0.508)
    (zone_45_only no)
    (trace_min 0.2)
    (via_size 0.8)
    (via_drill 0.4)
    (via_min_size 0.4)
    (via_min_drill 0.3)
    (uvia_size 0.3)
    (uvia_drill 0.1)
    (uvias_allowed no)
    (uvia_min_size 0.2)
    (uvia_min_drill 0.1)
    (edge_width 0.05)
    (segment_width 0.2)
    (pcb_text_width 0.3)
    (pcb_text_size 1.5 1.5)
    (mod_edge_width 0.12)
    (mod_text_size 1 1)
    (mod_text_width 0.15)
    (pad_size 1.7 1.7)
    (pad_drill 1)
    (pad_to_mask_clearance 0.051)
    (solder_mask_min_width 0.25)
    (aux_axis_origin 0 0)
    (visible_elements FFFFFF7F)
    (pcbplotparams
      (layerselection 0x010fc_ffffffff)
      (usegerberextensions false)
      (usegerberattributes false)
      (usegerberadvancedattributes false)
      (creategerberjobfile false)
      (excludeedgelayer true)
      (linewidth 0.100000)
      (plotframeref false)
      (viasonmask false)
      (mode 1)
      (useauxorigin false)
      (hpglpennumber 1)
      (hpglpenspeed 20)
      (hpglpendiameter 15.000000)
      (psnegative false)
      (psa4output false)
      (plotreference true)
      (plotvalue true)
      (plotinvisibletext false)
      (padsonsilk false)
      (subtractmaskfromsilk false)
      (outputformat 1)
      (mirror false)
      (drillshape 1)
      (scaleselection 1)
      (outputdirectory ""))
  )

  (net 0 "")
  (net 1 "Net-(R1-Pad2)")
  (net 2 /gnd)
  (net 3 /rdata)
  (net 4 "Net-(SW1-Pad2)")
  (net 5 "Net-(SW1-Pad1)")
  (net 6 /5v)
  (net 7 /sck)
  (net 8 /sda)
  (net 9 /vdd)
  (net 10 "Net-(SW_EN1-Pad2)")

  (net_class Default "Esta es la clase de red por defecto."
    (clearance 0.2)
    (trace_width 0.25)
    (via_dia 0.8)
    (via_drill 0.4)
    (uvia_dia 0.3)
    (uvia_drill 0.1)
    (add_net /5v)
    (add_net /gnd)
    (add_net /rdata)
    (add_net /sck)
    (add_net /sda)
    (add_net /vdd)
    (add_net "Net-(R1-Pad2)")
    (add_net "Net-(SW1-Pad1)")
    (add_net "Net-(SW1-Pad2)")
    (add_net "Net-(SW_EN1-Pad2)")
  )

  (module Connector_PinHeader_2.54mm:PinHeader_1x02_P2.54mm_Vertical (layer F.Cu) (tedit 59FED5CC) (tstamp 6022A080)
    (at 66.04 38.1)
    (descr "Through hole straight pin header, 1x02, 2.54mm pitch, single row")
    (tags "Through hole pin header THT 1x02 2.54mm single row")
    (path /6021DE39)
    (fp_text reference R1 (at 0 -2.33) (layer F.SilkS)
      (effects (font (size 1 1) (thickness 0.15)))
    )
    (fp_text value LDR03 (at 0 4.87) (layer F.Fab)
      (effects (font (size 1 1) (thickness 0.15)))
    )
    (fp_text user %R (at 0 1.27 90) (layer F.Fab)
      (effects (font (size 1 1) (thickness 0.15)))
    )
    (fp_line (start 1.8 -1.8) (end -1.8 -1.8) (layer F.CrtYd) (width 0.05))
    (fp_line (start 1.8 4.35) (end 1.8 -1.8) (layer F.CrtYd) (width 0.05))
    (fp_line (start -1.8 4.35) (end 1.8 4.35) (layer F.CrtYd) (width 0.05))
    (fp_line (start -1.8 -1.8) (end -1.8 4.35) (layer F.CrtYd) (width 0.05))
    (fp_line (start -1.33 -1.33) (end 0 -1.33) (layer F.SilkS) (width 0.12))
    (fp_line (start -1.33 0) (end -1.33 -1.33) (layer F.SilkS) (width 0.12))
    (fp_line (start -1.33 1.27) (end 1.33 1.27) (layer F.SilkS) (width 0.12))
    (fp_line (start 1.33 1.27) (end 1.33 3.87) (layer F.SilkS) (width 0.12))
    (fp_line (start -1.33 1.27) (end -1.33 3.87) (layer F.SilkS) (width 0.12))
    (fp_line (start -1.33 3.87) (end 1.33 3.87) (layer F.SilkS) (width 0.12))
    (fp_line (start -1.27 -0.635) (end -0.635 -1.27) (layer F.Fab) (width 0.1))
    (fp_line (start -1.27 3.81) (end -1.27 -0.635) (layer F.Fab) (width 0.1))
    (fp_line (start 1.27 3.81) (end -1.27 3.81) (layer F.Fab) (width 0.1))
    (fp_line (start 1.27 -1.27) (end 1.27 3.81) (layer F.Fab) (width 0.1))
    (fp_line (start -0.635 -1.27) (end 1.27 -1.27) (layer F.Fab) (width 0.1))
    (pad 2 thru_hole oval (at 0 2.54) (size 1.7 1.7) (drill 1) (layers *.Cu *.Mask)
      (net 1 "Net-(R1-Pad2)"))
    (pad 1 thru_hole rect (at 0 0) (size 1.7 1.7) (drill 1) (layers *.Cu *.Mask)
      (net 9 /vdd))
    (model ${KISYS3DMOD}/Connector_PinHeader_2.54mm.3dshapes/PinHeader_1x02_P2.54mm_Vertical.wrl
      (at (xyz 0 0 0))
      (scale (xyz 1 1 1))
      (rotate (xyz 0 0 0))
    )
  )

  (module Resistor_THT:R_Axial_DIN0207_L6.3mm_D2.5mm_P2.54mm_Vertical (layer F.Cu) (tedit 5AE5139B) (tstamp 60236824)
    (at 66.04 50.8 270)
    (descr "Resistor, Axial_DIN0207 series, Axial, Vertical, pin pitch=2.54mm, 0.25W = 1/4W, length*diameter=6.3*2.5mm^2, http://cdn-reichelt.de/documents/datenblatt/B400/1_4W%23YAG.pdf")
    (tags "Resistor Axial_DIN0207 series Axial Vertical pin pitch 2.54mm 0.25W = 1/4W length 6.3mm diameter 2.5mm")
    (path /6021D83D)
    (fp_text reference R2 (at 1.27 -2.37 90) (layer F.SilkS)
      (effects (font (size 1 1) (thickness 0.15)))
    )
    (fp_text value R (at 1.27 2.37 90) (layer F.Fab)
      (effects (font (size 1 1) (thickness 0.15)))
    )
    (fp_text user %R (at 1.27 -2.37 90) (layer F.Fab)
      (effects (font (size 1 1) (thickness 0.15)))
    )
    (fp_line (start 3.59 -1.5) (end -1.5 -1.5) (layer F.CrtYd) (width 0.05))
    (fp_line (start 3.59 1.5) (end 3.59 -1.5) (layer F.CrtYd) (width 0.05))
    (fp_line (start -1.5 1.5) (end 3.59 1.5) (layer F.CrtYd) (width 0.05))
    (fp_line (start -1.5 -1.5) (end -1.5 1.5) (layer F.CrtYd) (width 0.05))
    (fp_line (start 1.37 0) (end 1.44 0) (layer F.SilkS) (width 0.12))
    (fp_line (start 0 0) (end 2.54 0) (layer F.Fab) (width 0.1))
    (fp_circle (center 0 0) (end 1.37 0) (layer F.SilkS) (width 0.12))
    (fp_circle (center 0 0) (end 1.25 0) (layer F.Fab) (width 0.1))
    (pad 2 thru_hole oval (at 2.54 0 270) (size 1.6 1.6) (drill 0.8) (layers *.Cu *.Mask)
      (net 2 /gnd))
    (pad 1 thru_hole circle (at 0 0 270) (size 1.6 1.6) (drill 0.8) (layers *.Cu *.Mask)
      (net 1 "Net-(R1-Pad2)"))
    (model ${KISYS3DMOD}/Resistor_THT.3dshapes/R_Axial_DIN0207_L6.3mm_D2.5mm_P2.54mm_Vertical.wrl
      (at (xyz 0 0 0))
      (scale (xyz 1 1 1))
      (rotate (xyz 0 0 0))
    )
  )

  (module Connector_JST:JST_XH_B4B-XH-A_1x04_P2.50mm_Vertical (layer F.Cu) (tedit 5C28146C) (tstamp 60234B95)
    (at 85.09 48.26 180)
    (descr "JST XH series connector, B4B-XH-A (http://www.jst-mfg.com/product/pdf/eng/eXH.pdf), generated with kicad-footprint-generator")
    (tags "connector JST XH vertical")
    (path /6023AA12)
    (fp_text reference J3 (at 3.75 -3.55) (layer F.SilkS)
      (effects (font (size 1 1) (thickness 0.15)))
    )
    (fp_text value bme680 (at 3.75 4.6) (layer F.Fab)
      (effects (font (size 1 1) (thickness 0.15)))
    )
    (fp_text user %R (at 3.75 2.7) (layer F.Fab)
      (effects (font (size 1 1) (thickness 0.15)))
    )
    (fp_line (start -2.85 -2.75) (end -2.85 -1.5) (layer F.SilkS) (width 0.12))
    (fp_line (start -1.6 -2.75) (end -2.85 -2.75) (layer F.SilkS) (width 0.12))
    (fp_line (start 9.3 2.75) (end 3.75 2.75) (layer F.SilkS) (width 0.12))
    (fp_line (start 9.3 -0.2) (end 9.3 2.75) (layer F.SilkS) (width 0.12))
    (fp_line (start 10.05 -0.2) (end 9.3 -0.2) (layer F.SilkS) (width 0.12))
    (fp_line (start -1.8 2.75) (end 3.75 2.75) (layer F.SilkS) (width 0.12))
    (fp_line (start -1.8 -0.2) (end -1.8 2.75) (layer F.SilkS) (width 0.12))
    (fp_line (start -2.55 -0.2) (end -1.8 -0.2) (layer F.SilkS) (width 0.12))
    (fp_line (start 10.05 -2.45) (end 8.25 -2.45) (layer F.SilkS) (width 0.12))
    (fp_line (start 10.05 -1.7) (end 10.05 -2.45) (layer F.SilkS) (width 0.12))
    (fp_line (start 8.25 -1.7) (end 10.05 -1.7) (layer F.SilkS) (width 0.12))
    (fp_line (start 8.25 -2.45) (end 8.25 -1.7) (layer F.SilkS) (width 0.12))
    (fp_line (start -0.75 -2.45) (end -2.55 -2.45) (layer F.SilkS) (width 0.12))
    (fp_line (start -0.75 -1.7) (end -0.75 -2.45) (layer F.SilkS) (width 0.12))
    (fp_line (start -2.55 -1.7) (end -0.75 -1.7) (layer F.SilkS) (width 0.12))
    (fp_line (start -2.55 -2.45) (end -2.55 -1.7) (layer F.SilkS) (width 0.12))
    (fp_line (start 6.75 -2.45) (end 0.75 -2.45) (layer F.SilkS) (width 0.12))
    (fp_line (start 6.75 -1.7) (end 6.75 -2.45) (layer F.SilkS) (width 0.12))
    (fp_line (start 0.75 -1.7) (end 6.75 -1.7) (layer F.SilkS) (width 0.12))
    (fp_line (start 0.75 -2.45) (end 0.75 -1.7) (layer F.SilkS) (width 0.12))
    (fp_line (start 0 -1.35) (end 0.625 -2.35) (layer F.Fab) (width 0.1))
    (fp_line (start -0.625 -2.35) (end 0 -1.35) (layer F.Fab) (width 0.1))
    (fp_line (start 10.45 -2.85) (end -2.95 -2.85) (layer F.CrtYd) (width 0.05))
    (fp_line (start 10.45 3.9) (end 10.45 -2.85) (layer F.CrtYd) (width 0.05))
    (fp_line (start -2.95 3.9) (end 10.45 3.9) (layer F.CrtYd) (width 0.05))
    (fp_line (start -2.95 -2.85) (end -2.95 3.9) (layer F.CrtYd) (width 0.05))
    (fp_line (start 10.06 -2.46) (end -2.56 -2.46) (layer F.SilkS) (width 0.12))
    (fp_line (start 10.06 3.51) (end 10.06 -2.46) (layer F.SilkS) (width 0.12))
    (fp_line (start -2.56 3.51) (end 10.06 3.51) (layer F.SilkS) (width 0.12))
    (fp_line (start -2.56 -2.46) (end -2.56 3.51) (layer F.SilkS) (width 0.12))
    (fp_line (start 9.95 -2.35) (end -2.45 -2.35) (layer F.Fab) (width 0.1))
    (fp_line (start 9.95 3.4) (end 9.95 -2.35) (layer F.Fab) (width 0.1))
    (fp_line (start -2.45 3.4) (end 9.95 3.4) (layer F.Fab) (width 0.1))
    (fp_line (start -2.45 -2.35) (end -2.45 3.4) (layer F.Fab) (width 0.1))
    (pad 4 thru_hole oval (at 7.5 0 180) (size 1.7 1.95) (drill 0.95) (layers *.Cu *.Mask)
      (net 2 /gnd))
    (pad 3 thru_hole oval (at 5 0 180) (size 1.7 1.95) (drill 0.95) (layers *.Cu *.Mask)
      (net 9 /vdd))
    (pad 2 thru_hole oval (at 2.5 0 180) (size 1.7 1.95) (drill 0.95) (layers *.Cu *.Mask)
      (net 7 /sck))
    (pad 1 thru_hole roundrect (at 0 0 180) (size 1.7 1.95) (drill 0.95) (layers *.Cu *.Mask) (roundrect_rratio 0.147059)
      (net 8 /sda))
    (model ${KISYS3DMOD}/Connector_JST.3dshapes/JST_XH_B4B-XH-A_1x04_P2.50mm_Vertical.wrl
      (at (xyz 0 0 0))
      (scale (xyz 1 1 1))
      (rotate (xyz 0 0 0))
    )
  )

  (module Connector_JST:JST_EH_B5B-EH-A_1x05_P2.50mm_Vertical (layer F.Cu) (tedit 5C28142C) (tstamp 60233B49)
    (at 76.2 71.12)
    (descr "JST EH series connector, B5B-EH-A (http://www.jst-mfg.com/product/pdf/eng/eEH.pdf), generated with kicad-footprint-generator")
    (tags "connector JST EH vertical")
    (path /6024C6BA)
    (fp_text reference J2 (at 5 -2.8) (layer F.SilkS)
      (effects (font (size 1 1) (thickness 0.15)))
    )
    (fp_text value radar (at 5 3.4) (layer F.Fab)
      (effects (font (size 1 1) (thickness 0.15)))
    )
    (fp_text user %R (at 5 1.5) (layer F.Fab)
      (effects (font (size 1 1) (thickness 0.15)))
    )
    (fp_line (start -2.91 2.61) (end -0.41 2.61) (layer F.Fab) (width 0.1))
    (fp_line (start -2.91 0.11) (end -2.91 2.61) (layer F.Fab) (width 0.1))
    (fp_line (start -2.91 2.61) (end -0.41 2.61) (layer F.SilkS) (width 0.12))
    (fp_line (start -2.91 0.11) (end -2.91 2.61) (layer F.SilkS) (width 0.12))
    (fp_line (start 11.61 0.81) (end 11.61 2.31) (layer F.SilkS) (width 0.12))
    (fp_line (start 12.61 0.81) (end 11.61 0.81) (layer F.SilkS) (width 0.12))
    (fp_line (start -1.61 0.81) (end -1.61 2.31) (layer F.SilkS) (width 0.12))
    (fp_line (start -2.61 0.81) (end -1.61 0.81) (layer F.SilkS) (width 0.12))
    (fp_line (start 12.11 0) (end 12.61 0) (layer F.SilkS) (width 0.12))
    (fp_line (start 12.11 -1.21) (end 12.11 0) (layer F.SilkS) (width 0.12))
    (fp_line (start -2.11 -1.21) (end 12.11 -1.21) (layer F.SilkS) (width 0.12))
    (fp_line (start -2.11 0) (end -2.11 -1.21) (layer F.SilkS) (width 0.12))
    (fp_line (start -2.61 0) (end -2.11 0) (layer F.SilkS) (width 0.12))
    (fp_line (start 12.61 -1.71) (end -2.61 -1.71) (layer F.SilkS) (width 0.12))
    (fp_line (start 12.61 2.31) (end 12.61 -1.71) (layer F.SilkS) (width 0.12))
    (fp_line (start -2.61 2.31) (end 12.61 2.31) (layer F.SilkS) (width 0.12))
    (fp_line (start -2.61 -1.71) (end -2.61 2.31) (layer F.SilkS) (width 0.12))
    (fp_line (start 13 -2.1) (end -3 -2.1) (layer F.CrtYd) (width 0.05))
    (fp_line (start 13 2.7) (end 13 -2.1) (layer F.CrtYd) (width 0.05))
    (fp_line (start -3 2.7) (end 13 2.7) (layer F.CrtYd) (width 0.05))
    (fp_line (start -3 -2.1) (end -3 2.7) (layer F.CrtYd) (width 0.05))
    (fp_line (start 12.5 -1.6) (end -2.5 -1.6) (layer F.Fab) (width 0.1))
    (fp_line (start 12.5 2.2) (end 12.5 -1.6) (layer F.Fab) (width 0.1))
    (fp_line (start -2.5 2.2) (end 12.5 2.2) (layer F.Fab) (width 0.1))
    (fp_line (start -2.5 -1.6) (end -2.5 2.2) (layer F.Fab) (width 0.1))
    (pad 5 thru_hole oval (at 10 0) (size 1.7 1.95) (drill 0.95) (layers *.Cu *.Mask))
    (pad 4 thru_hole oval (at 7.5 0) (size 1.7 1.95) (drill 0.95) (layers *.Cu *.Mask)
      (net 6 /5v))
    (pad 3 thru_hole oval (at 5 0) (size 1.7 1.95) (drill 0.95) (layers *.Cu *.Mask)
      (net 3 /rdata))
    (pad 2 thru_hole oval (at 2.5 0) (size 1.7 1.95) (drill 0.95) (layers *.Cu *.Mask)
      (net 2 /gnd))
    (pad 1 thru_hole roundrect (at 0 0) (size 1.7 1.95) (drill 0.95) (layers *.Cu *.Mask) (roundrect_rratio 0.147059))
    (model ${KISYS3DMOD}/Connector_JST.3dshapes/JST_EH_B5B-EH-A_1x05_P2.50mm_Vertical.wrl
      (at (xyz 0 0 0))
      (scale (xyz 1 1 1))
      (rotate (xyz 0 0 0))
    )
  )

  (module Connector_PinHeader_2.54mm:PinHeader_1x02_P2.54mm_Vertical (layer F.Cu) (tedit 59FED5CC) (tstamp 60237644)
    (at 72.39 27.94)
    (descr "Through hole straight pin header, 1x02, 2.54mm pitch, single row")
    (tags "Through hole pin header THT 1x02 2.54mm single row")
    (path /60245EF4)
    (fp_text reference SW_EN1 (at 0 -2.33) (layer F.SilkS)
      (effects (font (size 1 1) (thickness 0.15)))
    )
    (fp_text value EN_Push (at 0 4.87) (layer F.Fab)
      (effects (font (size 1 1) (thickness 0.15)))
    )
    (fp_text user %R (at 0 1.27 90) (layer F.Fab)
      (effects (font (size 1 1) (thickness 0.15)))
    )
    (fp_line (start 1.8 -1.8) (end -1.8 -1.8) (layer F.CrtYd) (width 0.05))
    (fp_line (start 1.8 4.35) (end 1.8 -1.8) (layer F.CrtYd) (width 0.05))
    (fp_line (start -1.8 4.35) (end 1.8 4.35) (layer F.CrtYd) (width 0.05))
    (fp_line (start -1.8 -1.8) (end -1.8 4.35) (layer F.CrtYd) (width 0.05))
    (fp_line (start -1.33 -1.33) (end 0 -1.33) (layer F.SilkS) (width 0.12))
    (fp_line (start -1.33 0) (end -1.33 -1.33) (layer F.SilkS) (width 0.12))
    (fp_line (start -1.33 1.27) (end 1.33 1.27) (layer F.SilkS) (width 0.12))
    (fp_line (start 1.33 1.27) (end 1.33 3.87) (layer F.SilkS) (width 0.12))
    (fp_line (start -1.33 1.27) (end -1.33 3.87) (layer F.SilkS) (width 0.12))
    (fp_line (start -1.33 3.87) (end 1.33 3.87) (layer F.SilkS) (width 0.12))
    (fp_line (start -1.27 -0.635) (end -0.635 -1.27) (layer F.Fab) (width 0.1))
    (fp_line (start -1.27 3.81) (end -1.27 -0.635) (layer F.Fab) (width 0.1))
    (fp_line (start 1.27 3.81) (end -1.27 3.81) (layer F.Fab) (width 0.1))
    (fp_line (start 1.27 -1.27) (end 1.27 3.81) (layer F.Fab) (width 0.1))
    (fp_line (start -0.635 -1.27) (end 1.27 -1.27) (layer F.Fab) (width 0.1))
    (pad 2 thru_hole oval (at 0 2.54) (size 1.7 1.7) (drill 1) (layers *.Cu *.Mask)
      (net 10 "Net-(SW_EN1-Pad2)"))
    (pad 1 thru_hole rect (at 0 0) (size 1.7 1.7) (drill 1) (layers *.Cu *.Mask)
      (net 2 /gnd))
    (model ${KISYS3DMOD}/Connector_PinHeader_2.54mm.3dshapes/PinHeader_1x02_P2.54mm_Vertical.wrl
      (at (xyz 0 0 0))
      (scale (xyz 1 1 1))
      (rotate (xyz 0 0 0))
    )
  )

  (module Connector_PinHeader_2.54mm:PinHeader_1x02_P2.54mm_Vertical (layer F.Cu) (tedit 59FED5CC) (tstamp 60233BB4)
    (at 91.44 27.94)
    (descr "Through hole straight pin header, 1x02, 2.54mm pitch, single row")
    (tags "Through hole pin header THT 1x02 2.54mm single row")
    (path /6024775C)
    (fp_text reference SW1 (at 0 -2.33) (layer F.SilkS)
      (effects (font (size 1 1) (thickness 0.15)))
    )
    (fp_text value SW_Push (at 0 4.87) (layer F.Fab)
      (effects (font (size 1 1) (thickness 0.15)))
    )
    (fp_text user %R (at 0 1.27 90) (layer F.Fab)
      (effects (font (size 1 1) (thickness 0.15)))
    )
    (fp_line (start 1.8 -1.8) (end -1.8 -1.8) (layer F.CrtYd) (width 0.05))
    (fp_line (start 1.8 4.35) (end 1.8 -1.8) (layer F.CrtYd) (width 0.05))
    (fp_line (start -1.8 4.35) (end 1.8 4.35) (layer F.CrtYd) (width 0.05))
    (fp_line (start -1.8 -1.8) (end -1.8 4.35) (layer F.CrtYd) (width 0.05))
    (fp_line (start -1.33 -1.33) (end 0 -1.33) (layer F.SilkS) (width 0.12))
    (fp_line (start -1.33 0) (end -1.33 -1.33) (layer F.SilkS) (width 0.12))
    (fp_line (start -1.33 1.27) (end 1.33 1.27) (layer F.SilkS) (width 0.12))
    (fp_line (start 1.33 1.27) (end 1.33 3.87) (layer F.SilkS) (width 0.12))
    (fp_line (start -1.33 1.27) (end -1.33 3.87) (layer F.SilkS) (width 0.12))
    (fp_line (start -1.33 3.87) (end 1.33 3.87) (layer F.SilkS) (width 0.12))
    (fp_line (start -1.27 -0.635) (end -0.635 -1.27) (layer F.Fab) (width 0.1))
    (fp_line (start -1.27 3.81) (end -1.27 -0.635) (layer F.Fab) (width 0.1))
    (fp_line (start 1.27 3.81) (end -1.27 3.81) (layer F.Fab) (width 0.1))
    (fp_line (start 1.27 -1.27) (end 1.27 3.81) (layer F.Fab) (width 0.1))
    (fp_line (start -0.635 -1.27) (end 1.27 -1.27) (layer F.Fab) (width 0.1))
    (pad 2 thru_hole oval (at 0 2.54) (size 1.7 1.7) (drill 1) (layers *.Cu *.Mask)
      (net 4 "Net-(SW1-Pad2)"))
    (pad 1 thru_hole rect (at 0 0) (size 1.7 1.7) (drill 1) (layers *.Cu *.Mask)
      (net 5 "Net-(SW1-Pad1)"))
    (model ${KISYS3DMOD}/Connector_PinHeader_2.54mm.3dshapes/PinHeader_1x02_P2.54mm_Vertical.wrl
      (at (xyz 0 0 0))
      (scale (xyz 1 1 1))
      (rotate (xyz 0 0 0))
    )
  )

  (module Connector_JST:JST_XH_B4B-XH-A_1x04_P2.50mm_Vertical (layer F.Cu) (tedit 5C28146C) (tstamp 60233B28)
    (at 85.09 40.64 180)
    (descr "JST XH series connector, B4B-XH-A (http://www.jst-mfg.com/product/pdf/eng/eXH.pdf), generated with kicad-footprint-generator")
    (tags "connector JST XH vertical")
    (path /6021FE1D)
    (fp_text reference J1 (at 3.75 -3.55) (layer F.SilkS)
      (effects (font (size 1 1) (thickness 0.15)))
    )
    (fp_text value Display (at 3.75 4.6) (layer F.Fab)
      (effects (font (size 1 1) (thickness 0.15)))
    )
    (fp_text user %R (at 3.75 2.7) (layer F.Fab)
      (effects (font (size 1 1) (thickness 0.15)))
    )
    (fp_line (start -2.85 -2.75) (end -2.85 -1.5) (layer F.SilkS) (width 0.12))
    (fp_line (start -1.6 -2.75) (end -2.85 -2.75) (layer F.SilkS) (width 0.12))
    (fp_line (start 9.3 2.75) (end 3.75 2.75) (layer F.SilkS) (width 0.12))
    (fp_line (start 9.3 -0.2) (end 9.3 2.75) (layer F.SilkS) (width 0.12))
    (fp_line (start 10.05 -0.2) (end 9.3 -0.2) (layer F.SilkS) (width 0.12))
    (fp_line (start -1.8 2.75) (end 3.75 2.75) (layer F.SilkS) (width 0.12))
    (fp_line (start -1.8 -0.2) (end -1.8 2.75) (layer F.SilkS) (width 0.12))
    (fp_line (start -2.55 -0.2) (end -1.8 -0.2) (layer F.SilkS) (width 0.12))
    (fp_line (start 10.05 -2.45) (end 8.25 -2.45) (layer F.SilkS) (width 0.12))
    (fp_line (start 10.05 -1.7) (end 10.05 -2.45) (layer F.SilkS) (width 0.12))
    (fp_line (start 8.25 -1.7) (end 10.05 -1.7) (layer F.SilkS) (width 0.12))
    (fp_line (start 8.25 -2.45) (end 8.25 -1.7) (layer F.SilkS) (width 0.12))
    (fp_line (start -0.75 -2.45) (end -2.55 -2.45) (layer F.SilkS) (width 0.12))
    (fp_line (start -0.75 -1.7) (end -0.75 -2.45) (layer F.SilkS) (width 0.12))
    (fp_line (start -2.55 -1.7) (end -0.75 -1.7) (layer F.SilkS) (width 0.12))
    (fp_line (start -2.55 -2.45) (end -2.55 -1.7) (layer F.SilkS) (width 0.12))
    (fp_line (start 6.75 -2.45) (end 0.75 -2.45) (layer F.SilkS) (width 0.12))
    (fp_line (start 6.75 -1.7) (end 6.75 -2.45) (layer F.SilkS) (width 0.12))
    (fp_line (start 0.75 -1.7) (end 6.75 -1.7) (layer F.SilkS) (width 0.12))
    (fp_line (start 0.75 -2.45) (end 0.75 -1.7) (layer F.SilkS) (width 0.12))
    (fp_line (start 0 -1.35) (end 0.625 -2.35) (layer F.Fab) (width 0.1))
    (fp_line (start -0.625 -2.35) (end 0 -1.35) (layer F.Fab) (width 0.1))
    (fp_line (start 10.45 -2.85) (end -2.95 -2.85) (layer F.CrtYd) (width 0.05))
    (fp_line (start 10.45 3.9) (end 10.45 -2.85) (layer F.CrtYd) (width 0.05))
    (fp_line (start -2.95 3.9) (end 10.45 3.9) (layer F.CrtYd) (width 0.05))
    (fp_line (start -2.95 -2.85) (end -2.95 3.9) (layer F.CrtYd) (width 0.05))
    (fp_line (start 10.06 -2.46) (end -2.56 -2.46) (layer F.SilkS) (width 0.12))
    (fp_line (start 10.06 3.51) (end 10.06 -2.46) (layer F.SilkS) (width 0.12))
    (fp_line (start -2.56 3.51) (end 10.06 3.51) (layer F.SilkS) (width 0.12))
    (fp_line (start -2.56 -2.46) (end -2.56 3.51) (layer F.SilkS) (width 0.12))
    (fp_line (start 9.95 -2.35) (end -2.45 -2.35) (layer F.Fab) (width 0.1))
    (fp_line (start 9.95 3.4) (end 9.95 -2.35) (layer F.Fab) (width 0.1))
    (fp_line (start -2.45 3.4) (end 9.95 3.4) (layer F.Fab) (width 0.1))
    (fp_line (start -2.45 -2.35) (end -2.45 3.4) (layer F.Fab) (width 0.1))
    (pad 4 thru_hole oval (at 7.5 0 180) (size 1.7 1.95) (drill 0.95) (layers *.Cu *.Mask)
      (net 2 /gnd))
    (pad 3 thru_hole oval (at 5 0 180) (size 1.7 1.95) (drill 0.95) (layers *.Cu *.Mask)
      (net 9 /vdd))
    (pad 2 thru_hole oval (at 2.5 0 180) (size 1.7 1.95) (drill 0.95) (layers *.Cu *.Mask)
      (net 7 /sck))
    (pad 1 thru_hole roundrect (at 0 0 180) (size 1.7 1.95) (drill 0.95) (layers *.Cu *.Mask) (roundrect_rratio 0.147059)
      (net 8 /sda))
    (model ${KISYS3DMOD}/Connector_JST.3dshapes/JST_XH_B4B-XH-A_1x04_P2.50mm_Vertical.wrl
      (at (xyz 0 0 0))
      (scale (xyz 1 1 1))
      (rotate (xyz 0 0 0))
    )
  )

  (module esp:MODULE_ESP32-DEVKITC-32D (layer F.Cu) (tedit 6021BF47) (tstamp 6022A2FF)
    (at 81.28 47.7)
    (path /6021C18B)
    (fp_text reference U2 (at -10.829175 -28.446045) (layer F.SilkS)
      (effects (font (size 1.000386 1.000386) (thickness 0.015)))
    )
    (fp_text value ESP32-DEVKITC-32D (at 1.24136 28.294535) (layer F.Fab)
      (effects (font (size 1.001047 1.001047) (thickness 0.015)))
    )
    (fp_circle (center -14.6 -19.9) (end -14.46 -19.9) (layer F.Fab) (width 0.28))
    (fp_circle (center -14.6 -19.9) (end -14.46 -19.9) (layer F.Fab) (width 0.28))
    (fp_line (start -14.2 27.5) (end -14.2 -27.4) (layer F.CrtYd) (width 0.05))
    (fp_line (start 14.2 27.5) (end -14.2 27.5) (layer F.CrtYd) (width 0.05))
    (fp_line (start 14.2 -27.4) (end 14.2 27.5) (layer F.CrtYd) (width 0.05))
    (fp_line (start -14.2 -27.4) (end 14.2 -27.4) (layer F.CrtYd) (width 0.05))
    (fp_line (start 13.95 27.25) (end -13.95 27.25) (layer F.SilkS) (width 0.127))
    (fp_line (start 13.95 -27.15) (end 13.95 27.25) (layer F.SilkS) (width 0.127))
    (fp_line (start -13.95 -27.15) (end 13.95 -27.15) (layer F.SilkS) (width 0.127))
    (fp_line (start -13.95 27.25) (end -13.95 -27.15) (layer F.SilkS) (width 0.127))
    (fp_line (start -13.95 27.25) (end -13.95 -27.15) (layer F.Fab) (width 0.127))
    (fp_line (start 13.95 27.25) (end -13.95 27.25) (layer F.Fab) (width 0.127))
    (fp_line (start 13.95 -27.15) (end 13.95 27.25) (layer F.Fab) (width 0.127))
    (fp_line (start -13.95 -27.15) (end 13.95 -27.15) (layer F.Fab) (width 0.127))
    (pad 38 thru_hole circle (at 12.7 25.96) (size 1.56 1.56) (drill 1.04) (layers *.Cu *.Mask))
    (pad 37 thru_hole circle (at 12.7 23.42) (size 1.56 1.56) (drill 1.04) (layers *.Cu *.Mask))
    (pad 36 thru_hole circle (at 12.7 20.88) (size 1.56 1.56) (drill 1.04) (layers *.Cu *.Mask))
    (pad 35 thru_hole circle (at 12.7 18.34) (size 1.56 1.56) (drill 1.04) (layers *.Cu *.Mask)
      (net 7 /sck))
    (pad 34 thru_hole circle (at 12.7 15.8) (size 1.56 1.56) (drill 1.04) (layers *.Cu *.Mask))
    (pad 33 thru_hole circle (at 12.7 13.26) (size 1.56 1.56) (drill 1.04) (layers *.Cu *.Mask))
    (pad 32 thru_hole circle (at 12.7 10.72) (size 1.56 1.56) (drill 1.04) (layers *.Cu *.Mask)
      (net 8 /sda))
    (pad 31 thru_hole circle (at 12.7 8.18) (size 1.56 1.56) (drill 1.04) (layers *.Cu *.Mask))
    (pad 30 thru_hole circle (at 12.7 5.64) (size 1.56 1.56) (drill 1.04) (layers *.Cu *.Mask))
    (pad 29 thru_hole circle (at 12.7 3.1) (size 1.56 1.56) (drill 1.04) (layers *.Cu *.Mask))
    (pad 28 thru_hole circle (at 12.7 0.56) (size 1.56 1.56) (drill 1.04) (layers *.Cu *.Mask))
    (pad 27 thru_hole circle (at 12.7 -1.98) (size 1.56 1.56) (drill 1.04) (layers *.Cu *.Mask))
    (pad 26 thru_hole circle (at 12.7 -4.52) (size 1.56 1.56) (drill 1.04) (layers *.Cu *.Mask)
      (net 2 /gnd))
    (pad 25 thru_hole circle (at 12.7 -7.06) (size 1.56 1.56) (drill 1.04) (layers *.Cu *.Mask))
    (pad 24 thru_hole circle (at 12.7 -9.6) (size 1.56 1.56) (drill 1.04) (layers *.Cu *.Mask))
    (pad 23 thru_hole circle (at 12.7 -12.14) (size 1.56 1.56) (drill 1.04) (layers *.Cu *.Mask))
    (pad 22 thru_hole circle (at 12.7 -14.68) (size 1.56 1.56) (drill 1.04) (layers *.Cu *.Mask))
    (pad 21 thru_hole circle (at 12.7 -17.22) (size 1.56 1.56) (drill 1.04) (layers *.Cu *.Mask)
      (net 4 "Net-(SW1-Pad2)"))
    (pad 20 thru_hole circle (at 12.7 -19.76) (size 1.56 1.56) (drill 1.04) (layers *.Cu *.Mask)
      (net 5 "Net-(SW1-Pad1)"))
    (pad 18 thru_hole circle (at -12.7 23.42) (size 1.56 1.56) (drill 1.04) (layers *.Cu *.Mask))
    (pad 17 thru_hole circle (at -12.7 20.88) (size 1.56 1.56) (drill 1.04) (layers *.Cu *.Mask))
    (pad 16 thru_hole circle (at -12.7 18.34) (size 1.56 1.56) (drill 1.04) (layers *.Cu *.Mask))
    (pad 15 thru_hole circle (at -12.7 15.8) (size 1.56 1.56) (drill 1.04) (layers *.Cu *.Mask))
    (pad 14 thru_hole circle (at -12.7 13.26) (size 1.56 1.56) (drill 1.04) (layers *.Cu *.Mask)
      (net 2 /gnd))
    (pad 13 thru_hole circle (at -12.7 10.72) (size 1.56 1.56) (drill 1.04) (layers *.Cu *.Mask)
      (net 3 /rdata))
    (pad 12 thru_hole circle (at -12.7 8.18) (size 1.56 1.56) (drill 1.04) (layers *.Cu *.Mask))
    (pad 11 thru_hole circle (at -12.7 5.64) (size 1.56 1.56) (drill 1.04) (layers *.Cu *.Mask))
    (pad 10 thru_hole circle (at -12.7 3.1) (size 1.56 1.56) (drill 1.04) (layers *.Cu *.Mask))
    (pad 9 thru_hole circle (at -12.7 0.56) (size 1.56 1.56) (drill 1.04) (layers *.Cu *.Mask))
    (pad 8 thru_hole circle (at -12.7 -1.98) (size 1.56 1.56) (drill 1.04) (layers *.Cu *.Mask))
    (pad 7 thru_hole circle (at -12.7 -4.52) (size 1.56 1.56) (drill 1.04) (layers *.Cu *.Mask))
    (pad 6 thru_hole circle (at -12.7 -7.06) (size 1.56 1.56) (drill 1.04) (layers *.Cu *.Mask)
      (net 1 "Net-(R1-Pad2)"))
    (pad 5 thru_hole circle (at -12.7 -9.6) (size 1.56 1.56) (drill 1.04) (layers *.Cu *.Mask))
    (pad 4 thru_hole circle (at -12.7 -12.14) (size 1.56 1.56) (drill 1.04) (layers *.Cu *.Mask))
    (pad 3 thru_hole circle (at -12.7 -14.68) (size 1.56 1.56) (drill 1.04) (layers *.Cu *.Mask))
    (pad 19 thru_hole circle (at -12.7 25.96) (size 1.56 1.56) (drill 1.04) (layers *.Cu *.Mask)
      (net 6 /5v))
    (pad 2 thru_hole circle (at -12.7 -17.22) (size 1.56 1.56) (drill 1.04) (layers *.Cu *.Mask)
      (net 10 "Net-(SW_EN1-Pad2)"))
    (pad 1 thru_hole rect (at -12.7 -19.76) (size 1.56 1.56) (drill 1.04) (layers *.Cu *.Mask)
      (net 9 /vdd))
  )

  (segment (start 66.04 40.64) (end 66.04 50.8) (width 1.27) (layer F.Cu) (net 1))
  (segment (start 68.58 40.64) (end 66.04 40.64) (width 1.27) (layer F.Cu) (net 1))
  (segment (start 68.58 60.96) (end 78.74 60.96) (width 1.27) (layer F.Cu) (net 2))
  (segment (start 78.7 61) (end 78.7 71.12) (width 1.27) (layer F.Cu) (net 2))
  (segment (start 78.74 60.96) (end 78.7 61) (width 1.27) (layer F.Cu) (net 2))
  (segment (start 66.04 53.34) (end 66.04 60.96) (width 1.27) (layer F.Cu) (net 2))
  (segment (start 66.04 60.96) (end 68.58 60.96) (width 1.27) (layer F.Cu) (net 2))
  (segment (start 77.59 40.64) (end 77.59 28.06) (width 1.27) (layer F.Cu) (net 2))
  (segment (start 77.47 27.94) (end 72.39 27.94) (width 1.27) (layer F.Cu) (net 2))
  (segment (start 77.59 28.06) (end 77.47 27.94) (width 1.27) (layer F.Cu) (net 2))
  (segment (start 77.59 40.64) (end 77.59 48.26) (width 1.27) (layer F.Cu) (net 2))
  (segment (start 68.58 58.42) (end 81.28 58.42) (width 1.27) (layer F.Cu) (net 3))
  (segment (start 81.2 58.5) (end 81.2 71.12) (width 1.27) (layer F.Cu) (net 3))
  (segment (start 81.28 58.42) (end 81.2 58.5) (width 1.27) (layer F.Cu) (net 3))
  (segment (start 93.98 30.48) (end 91.44 30.48) (width 1.27) (layer F.Cu) (net 4))
  (segment (start 93.98 27.94) (end 91.44 27.94) (width 1.27) (layer F.Cu) (net 5))
  (segment (start 83.7 71.12) (end 83.7 73.54) (width 1.27) (layer F.Cu) (net 6))
  (segment (start 83.58 73.66) (end 68.58 73.66) (width 1.27) (layer F.Cu) (net 6))
  (segment (start 83.7 73.54) (end 83.58 73.66) (width 1.27) (layer F.Cu) (net 6))
  (segment (start 86.36 66.04) (end 93.98 66.04) (width 1.27) (layer F.Cu) (net 7))
  (segment (start 82.59 40.64) (end 82.59 48.26) (width 1.27) (layer F.Cu) (net 7))
  (segment (start 82.59 48.26) (end 82.59 55.84) (width 1.27) (layer F.Cu) (net 7))
  (segment (start 82.59 55.84) (end 82.63 55.88) (width 1.27) (layer F.Cu) (net 7))
  (segment (start 82.63 55.88) (end 85.09 55.88) (width 1.27) (layer F.Cu) (net 7))
  (segment (start 85.09 55.88) (end 85.09 66.04) (width 1.27) (layer F.Cu) (net 7))
  (segment (start 85.09 66.04) (end 86.36 66.04) (width 1.27) (layer F.Cu) (net 7))
  (segment (start 88.9 58.42) (end 93.98 58.42) (width 1.27) (layer F.Cu) (net 8))
  (segment (start 85.09 40.64) (end 85.09 48.26) (width 1.27) (layer F.Cu) (net 8))
  (segment (start 85.09 48.26) (end 85.09 53.34) (width 1.27) (layer F.Cu) (net 8))
  (segment (start 85.09 53.34) (end 88.9 53.34) (width 1.27) (layer F.Cu) (net 8))
  (segment (start 88.9 53.34) (end 88.9 58.42) (width 1.27) (layer F.Cu) (net 8))
  (segment (start 68.58 27.94) (end 66.53 27.94) (width 1.27) (layer F.Cu) (net 9))
  (segment (start 66.04 28.43) (end 66.04 38.1) (width 1.27) (layer F.Cu) (net 9))
  (segment (start 66.53 27.94) (end 66.04 28.43) (width 1.27) (layer F.Cu) (net 9))
  (segment (start 68.58 27.94) (end 68.58 24.13) (width 1.27) (layer F.Cu) (net 9))
  (segment (start 68.58 24.13) (end 80.01 24.13) (width 1.27) (layer F.Cu) (net 9))
  (segment (start 80.09 24.21) (end 80.09 40.64) (width 1.27) (layer F.Cu) (net 9))
  (segment (start 80.01 24.13) (end 80.09 24.21) (width 1.27) (layer F.Cu) (net 9))
  (segment (start 80.09 40.64) (end 80.09 48.26) (width 1.27) (layer F.Cu) (net 9))
  (segment (start 72.39 30.48) (end 68.58 30.48) (width 1.27) (layer F.Cu) (net 10))

)
